{
	"name": "tarantula",
	"creatureType": "arthropod",
	"groups": [
		"monster"
	],
	"entityClass": "com.lycanitesmobs.core.entity.creature.EntityTarantula",
	"modelClass": "com.lycanitesmobs.client.model.creature.ModelTarantula",
	"loadDefault": true,
	"enabled": true,
	"spawning": {
		"enabled": true,
		"spawners": ["monster", "beast"],
		"disableSubspecies": false,
		"dimensionIds": ["minecraft:the_nether", "minecraft:the_end"],
		"dimensionListType": "blacklist",
		"ignoreBiome": false,
		"biomes": ["jungle", "swamp"],
		"spawnWeight": 8,
		"dungeonWeight": 200,
		"spawnAreaLimit": 5,
		"spawnGroupMin": 1,
		"spawnGroupMax": 3,
		"spawnsInLight": false,
		"spawnsInDark": true,
		"worldDayMin": -1,
		"despawnNatural": true,
		"despawnForced": false
	},
	"width": 0.8,
	"height": 1.2,
	"experience": 10,
	"health": 15,
	"defense": 0,
	"armor": 0,
	"speed": 24,
	"damage": 2,
	"attackSpeed": 1,
	"rangedSpeed": 1,
	"effectDuration": 5,
	"effectAmplifier": 0,
	"pierce": 1,
	"sight": 24,
	"knockbackResistance": 0,
	"eggBackColor": "#1e5015",
	"eggForeColor": "#66be60",
	"subspecies": [
		{
			"index": 1,
			"name": "scarlet",
			"type": "uncommon"
		},
		{
			"index": 2,
			"name": "russet",
			"type": "uncommon"
		}
	],
	"element": "arbour",
	"diets": [
		"carnivore",
		"insectivore"
	],
	"peaceful": false,
	"summonable": false,
	"tameable": false,
	"mountable": false,
	"summonCost": 2,
	"dungeonLevel": 0,
	"drops": [
		{
			"item": "minecraft:string",
			"minAmount": 1,
			"maxAmount": 6,
			"chance": 1
		},
		{
			"item": "minecraft:spider_eye",
			"minAmount": 1,
			"maxAmount": 2,
			"chance": 0.5
		}
	],
	"sizeScale": 1,
	"hitboxScale": 1
}