{
	"name": "warg",
	"creatureType": "beast",
	"groups": [
		"predator"
	],
	"entityClass": "com.lycanitesmobs.core.entity.creature.EntityWarg",
	"modelClass": "com.lycanitesmobs.client.model.creature.ModelWarg",
	"loadDefault": true,
	"enabled": true,
	"spawning": {
		"enabled": true,
		"spawners": ["monster", "beast"],
		"disableSubspecies": false,
		"dimensionIds": ["minecraft:the_nether", "minecraft:the_end"],
		"dimensionListType": "blacklist",
		"ignoreBiome": false,
		"biomes": ["forest", "-mountain"],
		"spawnWeight": 4,
		"dungeonWeight": 200,
		"spawnAreaLimit": 5,
		"spawnGroupMin": 1,
		"spawnGroupMax": 3,
		"spawnsInLight": false,
		"spawnsInDark": true,
		"worldDayMin": -1,
		"despawnNatural": true,
		"despawnForced": false
	},
	"width": 0.8,
	"height": 1.5,
	"experience": 10,
	"health": 20,
	"defense": 1,
	"armor": 0,
	"speed": 30,
	"damage": 3,
	"attackSpeed": 1,
	"rangedSpeed": 1,
	"effectDuration": 5,
	"effectAmplifier": 0,
	"pierce": 1,
	"sight": 24,
	"knockbackResistance": 0.5,
	"eggBackColor": "#321806",
	"eggForeColor": "#68523b",
	"subspecies": [
		{
			"index": 1,
			"name": "ashen",
			"type": "uncommon"
		},
		{
			"index": 2,
			"name": "dark",
			"type": "uncommon"
		}
	],
	"elements": [
		"lightning",
		"fae"
	],
	"diets": [
		"carnivore"
	],
	"peaceful": false,
	"summonable": false,
	"tameable": true,
	"mountable": true,
	"summonCost": 4,
	"dungeonLevel": 2,
	"drops": [
		{
			"item": "minecraft:leather",
			"minAmount": 1,
			"maxAmount": 3,
			"chance": 1
		},
		{
			"item": "minecraft:bone",
			"minAmount": 1,
			"maxAmount": 2,
			"chance": 0.5
		}
	],
	"sizeScale": 1,
	"hitboxScale": 1
}