# Blender v2.67 (sub 0) OBJ File: 'dweller.blend'
# www.blender.org
mtllib dweller.mtl
o Tail06
v -0.014633 0.127172 -1.803738
v -0.014633 0.129496 -1.828807
v 0.014633 0.129496 -1.828807
v 0.014633 0.127172 -1.803738
v -0.014633 0.183415 -1.796271
v -0.014633 0.185739 -1.821341
v 0.014633 0.185739 -1.821341
v 0.014633 0.183415 -1.796271
v -0.020228 0.114273 -1.706611
v -0.020228 0.117663 -1.737945
v 0.020228 0.117663 -1.737945
v 0.020228 0.114273 -1.706611
v -0.020228 0.191861 -1.695458
v -0.020228 0.195251 -1.726791
v 0.020228 0.195251 -1.726791
v 0.020228 0.191861 -1.695458
v -0.095995 0.061971 -1.882236
v -0.095995 0.135011 -1.869433
v 0.095995 0.135011 -1.869433
v 0.095995 0.061971 -1.882236
v -0.095995 0.033524 -1.671056
v -0.095995 0.119315 -1.656176
v 0.095995 0.119315 -1.656176
v 0.095995 0.033524 -1.671056
v -0.095995 0.072689 -1.664155
v -0.095995 0.131542 -1.771889
v -0.095995 0.101133 -1.875313
v -0.095995 0.048294 -1.785243
v 0.000000 0.119315 -1.656176
v 0.095995 0.131542 -1.771889
v 0.000000 0.135011 -1.869433
v 0.095995 0.072689 -1.664155
v 0.095995 0.048294 -1.785243
v 0.095995 0.101133 -1.875313
v 0.000000 0.033524 -1.671056
v -0.000000 0.061971 -1.882236
v -0.095995 0.078150 -1.780468
v 0.000000 0.131542 -1.771889
v 0.095995 0.078150 -1.780468
v -0.000000 0.048294 -1.785243
v -0.000000 0.101133 -1.875313
v 0.000000 0.072689 -1.664155
v 0.015744 0.159719 -2.012929
v 0.015744 0.133323 -2.023882
v -0.015744 0.133323 -2.023882
v -0.015744 0.159719 -2.012929
v 0.086593 0.120945 -1.855172
v 0.086593 0.074451 -1.865510
v -0.086593 0.074451 -1.865510
v -0.086593 0.120945 -1.855172
v 0.000000 0.071661 -1.535485
vt 0.253579 0.998279
vt 0.340979 0.998279
vt 0.340979 0.941248
vt 0.253146 0.999685
vt 0.341523 0.999685
vt 0.341523 0.939914
vt 0.253146 0.939914
vt 0.253579 0.941248
vt 0.965675 0.875000
vt 0.997500 0.875000
vt 0.997500 0.755000
vt 0.871009 0.625000
vt 0.748986 0.625000
vt 0.748986 0.502977
vt 0.926518 0.875000
vt 0.926518 0.755000
vt 0.754687 0.875000
vt 0.926227 0.875000
vt 0.926227 0.755000
vt 0.870000 0.875000
vt 0.870000 0.755000
vt 0.750000 0.755000
vt 0.875000 0.875000
vt 0.875000 0.755000
vt 0.755000 0.755000
vt 0.965675 0.755000
vt 0.926518 0.995000
vt 0.965675 0.995000
vt 0.997500 0.995000
vt 0.996327 0.625000
vt 0.874304 0.625000
vt 0.874304 0.502977
vt 0.996327 0.747023
vt 0.874304 0.747023
vt 0.871009 0.747023
vt 0.748986 0.747023
vt 0.926539 0.875000
vt 0.755000 0.875000
vt 0.926539 0.995000
vt 0.755000 0.995000
vt 0.754687 0.995000
vt 0.926227 0.995000
vt 0.870000 0.995000
vt 0.750000 0.875000
vt 0.875000 0.995000
vt 0.750000 0.995000
vt 0.871009 0.502977
vt 0.754687 0.755000
vt 0.996327 0.502977
vt 0.926539 0.755000
usemtl None
s off
f 5/1 6/2 2/3
f 6/4 7/5 3/6
f 7/2 8/1 3/3
f 8/5 5/4 1/7
f 8/5 7/5 6/4
f 13/1 14/2 9/8
f 14/4 15/5 11/6
f 15/2 16/1 12/8
f 16/5 13/4 9/7
f 16/5 15/5 14/4
f 37/9 26/10 18/11
f 38/12 30/13 19/14
f 39/9 33/15 20/16
f 40/17 28/18 17/19
f 41/20 31/21 19/22
f 42/23 29/24 22/25
f 28/15 37/9 27/26
f 21/27 25/28 37/9
f 25/28 22/29 26/10
f 26/30 38/31 31/32
f 22/33 29/34 38/31
f 29/35 23/36 30/13
f 30/10 39/9 34/26
f 23/29 32/28 39/9
f 32/28 24/27 33/15
f 33/37 40/38 36/25
f 24/39 35/40 40/38
f 35/41 21/42 28/18
f 36/43 41/20 34/44
f 17/40 27/38 41/23
f 27/38 18/25 31/24
f 35/45 42/23 25/38
f 24/46 32/44 42/20
f 32/44 23/22 29/21
f 1/8 5/1 2/3
f 2/7 6/4 3/6
f 8/1 4/8 3/3
f 4/6 8/5 1/7
f 5/4 8/5 6/4
f 14/2 10/3 9/8
f 10/7 14/4 11/6
f 11/3 15/2 12/8
f 12/6 16/5 9/7
f 13/4 16/5 14/4
f 27/26 37/9 18/11
f 31/47 38/12 19/14
f 34/26 39/9 20/16
f 36/48 40/17 17/19
f 34/44 41/20 19/22
f 25/38 42/23 22/25
f 17/16 28/15 27/26
f 28/15 21/27 37/9
f 37/9 25/28 26/10
f 18/49 26/30 31/32
f 26/30 22/33 38/31
f 38/12 29/35 30/13
f 19/11 30/10 34/26
f 30/10 23/29 39/9
f 39/9 32/28 33/15
f 20/50 33/37 36/25
f 33/37 24/39 40/38
f 40/17 35/41 28/18
f 20/46 36/43 34/44
f 36/45 17/40 41/23
f 41/23 27/38 31/24
f 21/40 35/45 25/38
f 35/43 24/46 42/20
f 42/20 32/44 29/21
f 46/4 43/5 45/4
f 47/6 43/5 50/7
f 43/1 47/8 48/3
f 49/7 45/4 48/6
f 50/8 46/1 49/3
f 43/5 44/5 45/4
f 43/5 46/4 50/7
f 44/2 43/1 48/3
f 45/4 44/5 48/6
f 46/1 45/2 49/3
f 21/27 25/28 51/27
f 42/23 29/24 51/24
f 22/25 42/23 51/25
f 25/38 35/45 51/38
f 25/28 22/29 51/29
f 42/20 24/46 51/46
f 29/21 32/44 51/44
f 32/28 24/27 51/27
f 23/29 32/28 51/29
f 35/45 42/23 51/45
o Tail05
v -0.015945 0.140851 -1.568891
v -0.015945 0.140902 -1.607069
v 0.015945 0.140902 -1.607069
v 0.015945 0.140851 -1.568891
v -0.015945 0.226815 -1.565374
v -0.015945 0.226866 -1.603552
v 0.015945 0.226866 -1.603552
v 0.015945 0.226815 -1.565374
v -0.018932 0.136037 -1.441566
v -0.018932 0.136721 -1.482610
v 0.018932 0.136721 -1.482610
v 0.018932 0.136037 -1.441566
v -0.018932 0.237996 -1.436292
v -0.018932 0.238680 -1.477336
v 0.018932 0.238680 -1.477336
v 0.018932 0.237996 -1.436292
v -0.124416 0.010192 -1.686638
v -0.124416 0.143488 -1.675627
v 0.124416 0.143488 -1.675627
v 0.124416 0.010192 -1.686638
v -0.124416 -0.006255 -1.302648
v -0.124416 0.150284 -1.289998
v 0.124416 0.150284 -1.289998
v 0.124416 -0.006255 -1.302648
v -0.124416 0.065226 -1.296680
v -0.124416 0.153261 -1.499847
v -0.124416 0.081671 -1.680628
v -0.124416 0.001540 -1.510176
v 0.000000 0.150284 -1.289998
v 0.124416 0.153261 -1.499847
v 0.000000 0.143488 -1.675627
v 0.124416 0.065226 -1.296680
v 0.124416 0.001540 -1.510176
v 0.124416 0.081671 -1.680628
v 0.000000 -0.006255 -1.302648
v -0.000000 0.010192 -1.686638
v -0.124416 0.055951 -1.506498
v 0.000000 0.153261 -1.499847
v 0.124416 0.055951 -1.506498
v -0.000000 0.001540 -1.510176
v -0.000000 0.081671 -1.680628
v 0.000000 0.065226 -1.296680
v -0.018932 0.141399 -1.300590
v -0.018932 0.142083 -1.341634
v 0.018932 0.142083 -1.341634
v 0.018932 0.141399 -1.300590
v -0.018932 0.243358 -1.295316
v -0.018932 0.244042 -1.336360
v 0.018932 0.244042 -1.336360
v 0.018932 0.243358 -1.295316
v 0.000000 0.080298 -1.078137
vt 0.253579 0.998279
vt 0.340979 0.998279
vt 0.340979 0.941248
vt 0.253146 0.999685
vt 0.341523 0.999685
vt 0.341523 0.939914
vt 0.253146 0.939914
vt 0.253579 0.941248
vt 0.965675 0.875000
vt 0.997500 0.875000
vt 0.997500 0.755000
vt 0.871009 0.625000
vt 0.748986 0.625000
vt 0.748986 0.502977
vt 0.926518 0.875000
vt 0.926518 0.755000
vt 0.754687 0.875000
vt 0.926227 0.875000
vt 0.926227 0.755000
vt 0.870000 0.875000
vt 0.870000 0.755000
vt 0.750000 0.755000
vt 0.875000 0.875000
vt 0.875000 0.755000
vt 0.755000 0.755000
vt 0.965675 0.755000
vt 0.926518 0.995000
vt 0.965675 0.995000
vt 0.997500 0.995000
vt 0.996327 0.625000
vt 0.874304 0.625000
vt 0.874304 0.502977
vt 0.996327 0.747023
vt 0.874304 0.747023
vt 0.871009 0.747023
vt 0.748986 0.747023
vt 0.926539 0.875000
vt 0.755000 0.875000
vt 0.926539 0.995000
vt 0.755000 0.995000
vt 0.754687 0.995000
vt 0.926227 0.995000
vt 0.870000 0.995000
vt 0.750000 0.875000
vt 0.875000 0.995000
vt 0.750000 0.995000
vt 0.871009 0.502977
vt 0.754687 0.755000
vt 0.996327 0.502977
vt 0.926539 0.755000
usemtl None
s off
f 56/51 57/52 53/53
f 57/54 58/55 54/56
f 58/52 59/51 54/53
f 59/55 56/54 52/57
f 59/55 58/55 57/54
f 64/51 65/52 60/58
f 65/54 66/55 62/56
f 66/52 67/51 63/58
f 67/55 64/54 60/57
f 67/55 66/55 65/54
f 88/59 77/60 69/61
f 89/62 81/63 70/64
f 90/59 84/65 71/66
f 91/67 79/68 68/69
f 92/70 82/71 70/72
f 93/73 80/74 73/75
f 79/65 88/59 78/76
f 72/77 76/78 88/59
f 76/78 73/79 77/60
f 77/80 89/81 82/82
f 73/83 80/84 89/81
f 80/85 74/86 81/63
f 81/60 90/59 85/76
f 74/79 83/78 90/59
f 83/78 75/77 84/65
f 84/87 91/88 87/75
f 75/89 86/90 91/88
f 86/91 72/92 79/68
f 87/93 92/70 85/94
f 68/90 78/88 92/73
f 78/88 69/75 82/74
f 86/95 93/73 76/88
f 75/96 83/94 93/70
f 83/94 74/72 80/71
f 52/58 56/51 53/53
f 53/57 57/54 54/56
f 59/51 55/58 54/53
f 55/56 59/55 52/57
f 56/54 59/55 57/54
f 65/52 61/53 60/58
f 61/57 65/54 62/56
f 62/53 66/52 63/58
f 63/56 67/55 60/57
f 64/54 67/55 65/54
f 78/76 88/59 69/61
f 82/97 89/62 70/64
f 85/76 90/59 71/66
f 87/98 91/67 68/69
f 85/94 92/70 70/72
f 76/88 93/73 73/75
f 68/66 79/65 78/76
f 79/65 72/77 88/59
f 88/59 76/78 77/60
f 69/99 77/80 82/82
f 77/80 73/83 89/81
f 89/62 80/85 81/63
f 70/61 81/60 85/76
f 81/60 74/79 90/59
f 90/59 83/78 84/65
f 71/100 84/87 87/75
f 84/87 75/89 91/88
f 91/67 86/91 79/68
f 71/96 87/93 85/94
f 87/95 68/90 92/73
f 92/73 78/88 82/74
f 72/90 86/95 76/88
f 86/93 75/96 93/70
f 93/70 83/94 80/71
f 98/51 99/52 94/58
f 99/54 100/55 96/56
f 100/52 101/51 97/58
f 101/55 98/54 94/57
f 101/55 100/55 99/54
f 99/52 95/53 94/58
f 95/57 99/54 96/56
f 96/53 100/52 97/58
f 97/56 101/55 94/57
f 98/54 101/55 99/54
f 72/77 76/78 102/77
f 76/78 73/79 102/79
f 93/70 75/96 102/96
f 80/71 83/94 102/94
f 83/78 75/77 102/77
f 74/79 83/78 102/79
f 86/95 93/73 102/95
f 93/73 80/74 102/74
f 73/75 93/73 102/75
f 76/88 86/95 102/88
o Tail04
v -0.019931 0.160316 -1.171840
v -0.019931 0.157583 -1.219485
v 0.019931 0.157583 -1.219485
v 0.019931 0.160316 -1.171840
v -0.019931 0.267843 -1.173746
v -0.019931 0.265111 -1.221391
v 0.019931 0.265111 -1.221391
v 0.019931 0.267843 -1.173746
v -0.023665 0.163632 -1.012604
v -0.023665 0.161481 -1.063872
v 0.023665 0.161481 -1.063872
v 0.023665 0.163632 -1.012604
v -0.023665 0.291248 -1.013490
v -0.023665 0.289096 -1.064757
v 0.023665 0.289096 -1.064757
v 0.023665 0.291248 -1.013490
v -0.155520 -0.011351 -1.309202
v -0.155520 0.157548 -1.299069
v 0.155520 0.157548 -1.299069
v 0.155520 -0.011351 -1.309202
v -0.155520 -0.003753 -0.828835
v -0.155520 0.192512 -0.824514
v 0.155520 0.192512 -0.824514
v 0.155520 -0.003753 -0.828835
v -0.155520 0.085882 -0.826622
v -0.155520 0.180858 -1.086593
v -0.155520 0.078285 -1.306938
v -0.155520 -0.009224 -1.088370
v 0.000000 0.192512 -0.824514
v 0.155520 0.180858 -1.086593
v 0.000000 0.157548 -1.299069
v 0.155520 0.085882 -0.826622
v 0.155520 -0.009224 -1.088370
v 0.155520 0.078285 -1.306938
v 0.000000 -0.003753 -0.828835
v -0.000000 -0.011351 -1.309202
v -0.155520 0.058942 -1.087765
v 0.000000 0.180858 -1.086593
v 0.155520 0.058942 -1.087765
v -0.000000 -0.009224 -1.088370
v -0.000000 0.078285 -1.306938
v -0.023665 0.180648 -0.837080
v -0.023665 0.178496 -0.888347
v 0.023665 0.178496 -0.888347
v 0.023665 0.180648 -0.837080
v -0.023665 0.308264 -0.837965
v -0.023665 0.306112 -0.889232
v 0.023665 0.306112 -0.889232
v 0.023665 0.308264 -0.837965
v -0.136468 0.148858 -1.065196
v 0.136468 0.148858 -1.065196
v 0.000000 0.094444 -0.592784
v 0.000000 0.148858 -1.065196
vt 0.253579 0.998279
vt 0.340979 0.998279
vt 0.340979 0.941248
vt 0.253146 0.999685
vt 0.341523 0.999685
vt 0.341523 0.939914
vt 0.253146 0.939914
vt 0.253579 0.941248
vt 0.965675 0.875000
vt 0.997500 0.875000
vt 0.997500 0.755000
vt 0.871009 0.625000
vt 0.748986 0.625000
vt 0.748986 0.502977
vt 0.926518 0.875000
vt 0.926518 0.755000
vt 0.754687 0.875000
vt 0.926227 0.875000
vt 0.926227 0.755000
vt 0.870000 0.875000
vt 0.870000 0.755000
vt 0.750000 0.755000
vt 0.965675 0.755000
vt 0.926518 0.995000
vt 0.965675 0.995000
vt 0.997500 0.995000
vt 0.996327 0.625000
vt 0.874304 0.625000
vt 0.874304 0.502977
vt 0.996327 0.747023
vt 0.874304 0.747023
vt 0.871009 0.747023
vt 0.748986 0.747023
vt 0.926539 0.875000
vt 0.755000 0.875000
vt 0.755000 0.755000
vt 0.926539 0.995000
vt 0.755000 0.995000
vt 0.754687 0.995000
vt 0.926227 0.995000
vt 0.870000 0.995000
vt 0.750000 0.875000
vt 0.875000 0.875000
vt 0.875000 0.755000
vt 0.871009 0.502977
vt 0.754687 0.755000
vt 0.996327 0.502977
vt 0.926539 0.755000
vt 0.750000 0.995000
vt 0.875000 0.995000
usemtl None
s off
f 107/101 108/102 104/103
f 108/104 109/105 105/106
f 109/102 110/101 105/103
f 110/105 107/104 103/107
f 110/105 109/105 108/104
f 115/101 116/102 111/108
f 116/104 117/105 113/106
f 117/102 118/101 114/108
f 118/105 115/104 111/107
f 118/105 117/105 116/104
f 139/109 128/110 120/111
f 140/112 132/113 121/114
f 141/109 135/115 122/116
f 142/117 130/118 119/119
f 143/120 133/121 121/122
f 133/121 121/122 153/122
f 130/115 139/109 129/123
f 123/124 127/125 139/109
f 127/125 124/126 128/110
f 128/127 140/128 133/129
f 124/130 131/131 140/128
f 131/132 125/133 132/113
f 132/110 141/109 136/123
f 125/126 134/125 141/109
f 134/125 126/124 135/115
f 135/134 142/135 138/136
f 126/137 137/138 142/135
f 137/139 123/140 130/118
f 138/141 143/120 136/142
f 119/138 129/135 143/143
f 129/135 120/136 133/144
f 103/108 107/101 104/103
f 104/107 108/104 105/106
f 110/101 106/108 105/103
f 106/106 110/105 103/107
f 107/104 110/105 108/104
f 116/102 112/103 111/108
f 112/107 116/104 113/106
f 113/103 117/102 114/108
f 114/106 118/105 111/107
f 115/104 118/105 116/104
f 129/123 139/109 120/111
f 133/145 140/112 121/114
f 136/123 141/109 122/116
f 138/146 142/117 119/119
f 136/142 143/120 121/122
f 120/136 133/144 152/136
f 119/116 130/115 129/123
f 130/115 123/124 139/109
f 139/109 127/125 128/110
f 120/147 128/127 133/129
f 128/127 124/130 140/128
f 140/112 131/132 132/113
f 121/111 132/110 136/123
f 132/110 125/126 141/109
f 141/109 134/125 135/115
f 122/148 135/134 138/136
f 135/134 126/137 142/135
f 142/117 137/139 130/118
f 122/149 138/141 136/142
f 138/150 119/138 143/143
f 143/143 129/135 133/144
f 123/140 137/139 154/140
f 148/101 149/102 144/108
f 149/104 150/105 146/106
f 150/102 151/101 147/108
f 151/105 148/104 144/107
f 151/105 150/105 149/104
f 149/102 145/103 144/108
f 145/107 149/104 146/106
f 146/103 150/102 147/108
f 147/106 151/105 144/107
f 148/104 151/105 149/104
f 155/121 133/121 153/122
f 133/144 155/144 152/136
f 126/124 134/125 154/125
f 127/125 123/124 154/125
f 137/138 126/137 154/137
f 131/131 124/130 154/130
f 124/126 127/125 154/126
f 134/125 125/126 154/126
f 125/133 131/132 154/133
o Tail03
v -0.022146 0.184966 -0.691740
v -0.022146 0.182939 -0.735140
v 0.022146 0.182939 -0.735140
v 0.022146 0.184966 -0.691740
v -0.022146 0.306506 -0.695647
v -0.022146 0.304479 -0.739047
v 0.022146 0.304479 -0.739047
v 0.022146 0.306506 -0.695647
v -0.026294 0.195886 -0.521039
v -0.026294 0.180079 -0.570180
v 0.026294 0.180079 -0.570180
v 0.026294 0.195886 -0.521039
v -0.026294 0.333180 -0.565337
v -0.026294 0.317373 -0.614479
v 0.026294 0.317373 -0.614479
v 0.026294 0.333180 -0.565337
v -0.172800 -0.005944 -0.835732
v -0.172800 0.202822 -0.835382
v 0.172800 0.202822 -0.835382
v 0.172800 -0.005944 -0.835732
v -0.172800 0.051942 -0.193407
v -0.172800 0.213608 -0.418335
v 0.172800 0.213608 -0.418335
v 0.172800 0.051942 -0.193407
v -0.172800 0.123172 -0.327575
v -0.172800 0.203467 -0.596192
v -0.172800 0.095286 -0.835383
v -0.172800 -0.006020 -0.423198
v 0.000000 0.213608 -0.418335
v 0.172800 0.203467 -0.596192
v 0.000000 0.202822 -0.835382
v 0.172800 0.123172 -0.327575
v 0.172800 -0.006020 -0.423198
v 0.172800 0.095286 -0.835383
v 0.000000 0.051942 -0.193407
v -0.000000 -0.005944 -0.835732
v -0.172800 0.069105 -0.594312
v 0.000000 0.203467 -0.596192
v 0.172800 0.069105 -0.594312
v -0.000000 -0.006020 -0.423198
v -0.000000 0.095286 -0.835383
v 0.000000 0.283328 -0.198251
vt 0.253579 0.998279
vt 0.340979 0.998279
vt 0.340979 0.941248
vt 0.253146 0.999685
vt 0.341523 0.999685
vt 0.341523 0.939914
vt 0.253146 0.939914
vt 0.253579 0.941248
vt 0.965675 0.875000
vt 0.997500 0.875000
vt 0.997500 0.755000
vt 0.871009 0.625000
vt 0.748986 0.625000
vt 0.748986 0.502977
vt 0.926518 0.875000
vt 0.926518 0.755000
vt 0.754687 0.875000
vt 0.926227 0.875000
vt 0.926227 0.755000
vt 0.870000 0.875000
vt 0.870000 0.755000
vt 0.750000 0.755000
vt 0.965675 0.755000
vt 0.926518 0.995000
vt 0.965675 0.995000
vt 0.997500 0.995000
vt 0.996327 0.625000
vt 0.874304 0.625000
vt 0.874304 0.502977
vt 0.996327 0.747023
vt 0.874304 0.747023
vt 0.871009 0.747023
vt 0.748986 0.747023
vt 0.926539 0.875000
vt 0.755000 0.875000
vt 0.755000 0.755000
vt 0.926539 0.995000
vt 0.755000 0.995000
vt 0.754687 0.995000
vt 0.926227 0.995000
vt 0.870000 0.995000
vt 0.750000 0.875000
vt 0.875000 0.875000
vt 0.875000 0.755000
vt 0.871009 0.502977
vt 0.754687 0.755000
vt 0.996327 0.502977
vt 0.926539 0.755000
vt 0.750000 0.995000
vt 0.875000 0.995000
usemtl None
s off
f 160/151 161/152 157/153
f 161/154 162/155 158/156
f 162/152 163/151 158/153
f 163/155 160/154 156/157
f 163/155 162/155 161/154
f 168/151 169/152 164/158
f 169/154 170/155 166/156
f 170/152 171/151 167/158
f 171/155 168/154 164/157
f 171/155 170/155 169/154
f 192/159 181/160 173/161
f 193/162 185/163 174/164
f 194/159 188/165 175/166
f 195/167 183/168 172/169
f 196/170 186/171 174/172
f 183/165 192/159 182/173
f 176/174 180/175 192/159
f 180/175 177/176 181/160
f 181/177 193/178 186/179
f 177/180 184/181 193/178
f 184/182 178/183 185/163
f 185/160 194/159 189/173
f 178/176 187/175 194/159
f 187/175 179/174 188/165
f 188/184 195/185 191/186
f 179/187 190/188 195/185
f 190/189 176/190 183/168
f 191/191 196/170 189/192
f 172/188 182/185 196/193
f 182/185 173/186 186/194
f 156/158 160/151 157/153
f 157/157 161/154 158/156
f 163/151 159/158 158/153
f 159/156 163/155 156/157
f 160/154 163/155 161/154
f 169/152 165/153 164/158
f 165/157 169/154 166/156
f 166/153 170/152 167/158
f 167/156 171/155 164/157
f 168/154 171/155 169/154
f 182/173 192/159 173/161
f 186/195 193/162 174/164
f 189/173 194/159 175/166
f 191/196 195/167 172/169
f 189/192 196/170 174/172
f 172/166 183/165 182/173
f 183/165 176/174 192/159
f 192/159 180/175 181/160
f 173/197 181/177 186/179
f 181/177 177/180 193/178
f 193/162 184/182 185/163
f 174/161 185/160 189/173
f 185/160 178/176 194/159
f 194/159 187/175 188/165
f 175/198 188/184 191/186
f 188/184 179/187 195/185
f 195/167 190/189 183/168
f 175/199 191/191 189/192
f 191/200 172/188 196/193
f 196/193 182/185 186/194
f 187/175 178/176 197/175
f 179/174 187/175 197/174
f 180/175 176/174 197/175
f 177/176 180/175 197/176
f 190/188 179/187 197/188
f 176/190 190/189 197/190
f 184/181 177/180 197/181
f 178/183 184/182 197/183
o Tail02
v -0.037836 0.281912 -0.329832
v -0.037836 0.217991 -0.367570
v 0.037836 0.217991 -0.367570
v 0.037836 0.281912 -0.329832
v -0.037836 0.390124 -0.507186
v -0.037836 0.326203 -0.544924
v 0.037836 0.326203 -0.544924
v 0.037836 0.390124 -0.507186
v -0.037836 0.438487 -0.276190
v -0.037836 0.367516 -0.298118
v 0.037836 0.367516 -0.298118
v 0.037836 0.438487 -0.276190
v -0.037836 0.499589 -0.474586
v -0.037836 0.428617 -0.496514
v 0.037836 0.428617 -0.496514
v 0.037836 0.499589 -0.474586
v -0.216000 0.034783 -0.202879
v -0.216000 0.220251 -0.441999
v 0.216000 0.220251 -0.441999
v 0.216000 0.034783 -0.202879
v -0.216000 0.468890 0.082344
v -0.216000 0.539475 -0.246379
v 0.216000 0.539475 -0.246379
v 0.216000 0.468890 0.082344
v -0.216000 0.502190 -0.111287
v -0.216000 0.325697 -0.334198
v -0.216000 0.109252 -0.342982
v -0.216000 0.197493 -0.050172
v 0.000000 0.539475 -0.246379
v 0.216000 0.325697 -0.334198
v 0.000000 0.220251 -0.441999
v 0.216000 0.502190 -0.111287
v 0.216000 0.197493 -0.050172
v 0.216000 0.109252 -0.342982
v 0.000000 0.468890 0.082344
v -0.000000 0.034783 -0.202879
v -0.216000 0.270986 -0.207778
v 0.000000 0.325697 -0.334198
v 0.216000 0.270986 -0.207778
v 0.000000 0.197493 -0.050172
v -0.000000 0.109252 -0.342982
v -0.216000 0.668890 0.082344
v -0.216000 0.739475 -0.246379
v 0.216000 0.739475 -0.246379
v 0.216000 0.668890 0.082344
v -0.216000 0.702190 -0.111287
v 0.000000 0.739475 -0.246379
v 0.216000 0.702190 -0.111287
v 0.000000 0.668890 0.082344
v 0.000000 0.702190 -0.111287
vt 0.253579 0.998279
vt 0.340979 0.998279
vt 0.340979 0.941248
vt 0.253146 0.999685
vt 0.341523 0.999685
vt 0.341523 0.939914
vt 0.253146 0.939914
vt 0.253579 0.941248
vt 0.965675 0.875000
vt 0.997500 0.875000
vt 0.997500 0.755000
vt 0.871009 0.625000
vt 0.748986 0.625000
vt 0.748986 0.502977
vt 0.926518 0.875000
vt 0.926518 0.755000
vt 0.754687 0.875000
vt 0.926227 0.875000
vt 0.926227 0.755000
vt 0.870000 0.875000
vt 0.870000 0.755000
vt 0.750000 0.755000
vt 0.874304 0.747023
vt 0.996327 0.747023
vt 0.965675 0.755000
vt 0.926518 0.995000
vt 0.965675 0.995000
vt 0.997500 0.995000
vt 0.996327 0.625000
vt 0.874304 0.625000
vt 0.874304 0.502977
vt 0.871009 0.747023
vt 0.748986 0.747023
vt 0.926539 0.875000
vt 0.755000 0.875000
vt 0.755000 0.755000
vt 0.926539 0.995000
vt 0.755000 0.995000
vt 0.754687 0.995000
vt 0.926227 0.995000
vt 0.870000 0.995000
vt 0.750000 0.875000
vt 0.875000 0.875000
vt 0.875000 0.755000
vt 0.871009 0.502977
vt 0.754687 0.755000
vt 0.996327 0.502977
vt 0.926539 0.755000
vt 0.750000 0.995000
vt 0.875000 0.995000
usemtl None
s off
f 202/201 203/202 199/203
f 203/204 204/205 200/206
f 204/202 205/201 200/203
f 205/205 202/204 198/207
f 205/205 204/205 203/204
f 210/201 211/202 206/208
f 211/204 212/205 208/206
f 212/202 213/201 209/208
f 213/205 210/204 206/207
f 213/205 212/205 211/204
f 234/209 223/210 215/211
f 235/212 227/213 216/214
f 236/209 230/215 217/216
f 237/217 225/218 214/219
f 238/220 228/221 216/222
f 226/223 219/224 240/224
f 225/215 234/209 224/225
f 218/226 222/227 234/209
f 222/227 219/228 223/210
f 223/229 235/230 228/231
f 219/224 226/223 235/230
f 226/232 220/233 227/213
f 227/210 236/209 231/225
f 220/228 229/227 236/209
f 229/227 221/226 230/215
f 230/234 237/235 233/236
f 221/237 232/238 237/235
f 232/239 218/240 225/218
f 233/241 238/220 231/242
f 214/238 224/235 238/243
f 224/235 215/236 228/244
f 220/233 226/232 244/232
f 229/227 220/228 245/227
f 221/226 229/227 242/226
f 198/208 202/201 199/203
f 199/207 203/204 200/206
f 205/201 201/208 200/203
f 201/206 205/205 198/207
f 202/204 205/205 203/204
f 211/202 207/203 206/208
f 207/207 211/204 208/206
f 208/203 212/202 209/208
f 209/206 213/205 206/207
f 210/204 213/205 211/204
f 224/225 234/209 215/211
f 228/245 235/212 216/214
f 231/225 236/209 217/216
f 233/246 237/217 214/219
f 231/242 238/220 216/222
f 222/227 218/226 239/226
f 214/216 225/215 224/225
f 225/215 218/226 234/209
f 234/209 222/227 223/210
f 215/247 223/229 228/231
f 223/229 219/224 235/230
f 235/212 226/232 227/213
f 216/211 227/210 231/225
f 227/210 220/228 236/209
f 236/209 229/227 230/215
f 217/248 230/234 233/236
f 230/234 221/237 237/235
f 237/217 232/239 225/218
f 217/249 233/241 231/242
f 233/250 214/238 238/243
f 238/243 224/235 228/244
f 219/228 222/227 243/227
f 232/238 221/237 242/237
f 218/240 232/239 246/239
f 247/243 244/244 240/236
f 246/250 247/243 243/235
f 242/249 245/242 247/220
f 245/242 241/222 244/221
f 243/235 247/243 240/236
f 239/238 246/250 243/235
f 246/241 242/249 247/220
f 247/220 245/242 244/221
f 244/223 226/223 240/224
f 241/233 220/233 244/232
f 220/228 241/228 245/227
f 229/227 245/227 242/226
f 243/227 222/227 239/226
f 240/228 219/228 243/227
f 246/238 232/238 242/237
f 239/240 218/240 246/239
o Tail01
v -0.047295 0.647014 -0.243693
v -0.047295 0.552415 -0.244598
v 0.047295 0.552415 -0.244598
v 0.047295 0.647014 -0.243693
v -0.047295 0.649728 -0.527313
v -0.047295 0.555130 -0.528219
v 0.047295 0.555130 -0.528219
v 0.047295 0.649728 -0.527313
v -0.047295 0.829583 -0.244447
v -0.047295 0.734982 -0.243837
v 0.047295 0.734982 -0.243837
v 0.047295 0.829583 -0.244447
v -0.047295 0.827755 -0.528075
v -0.047295 0.733154 -0.527465
v 0.047295 0.733154 -0.527465
v 0.047295 0.827755 -0.528075
v -0.047295 0.996510 -0.242874
v -0.047295 0.901944 -0.245514
v 0.047295 0.901944 -0.245514
v 0.047295 0.996510 -0.242874
v -0.047295 1.004426 -0.526397
v -0.047295 0.909860 -0.529037
v 0.047295 0.909860 -0.529037
v 0.047295 1.004426 -0.526397
v -0.270000 0.460000 0.092456
v -0.270000 0.460000 -0.292456
v 0.270000 0.460000 -0.292456
v 0.270000 0.460000 0.092456
v -0.270000 1.000000 0.187600
v -0.270000 1.000000 -0.287600
v 0.270000 1.000000 -0.287600
v 0.270000 1.000000 0.187600
v -0.270000 1.000000 -0.050000
v -0.270000 0.730000 -0.287600
v -0.270000 0.460000 -0.050000
v -0.270000 0.730000 0.187600
v 0.000000 1.000000 -0.287600
v 0.270000 0.730000 -0.287600
v 0.000000 0.460000 -0.292456
v 0.270000 1.000000 -0.050000
v 0.270000 0.730000 0.187600
v 0.270000 0.460000 -0.050000
v 0.000000 1.000000 0.187600
v 0.000000 0.460000 0.092456
v -0.270000 0.730000 -0.050000
v 0.000000 0.730000 -0.287600
v 0.270000 0.730000 -0.050000
v 0.000000 0.730000 0.187600
v 0.000000 0.460000 -0.050000
v -0.302400 1.320000 0.187600
v -0.302400 1.320000 -0.287600
v 0.302400 1.320000 -0.287600
v 0.302400 1.320000 0.187600
v -0.302400 1.320000 -0.050000
v 0.000000 1.320000 -0.287600
v 0.302400 1.320000 -0.050000
v 0.000000 1.320000 0.187600
v 0.000000 1.320000 -0.050000
vt 0.253579 0.998279
vt 0.340979 0.998279
vt 0.340979 0.941248
vt 0.253146 0.999685
vt 0.341523 0.999685
vt 0.341523 0.939914
vt 0.253146 0.939914
vt 0.253579 0.941248
vt 0.965675 0.875000
vt 0.997500 0.875000
vt 0.997500 0.755000
vt 0.871009 0.625000
vt 0.748986 0.625000
vt 0.748986 0.502977
vt 0.926518 0.875000
vt 0.926518 0.755000
vt 0.754687 0.875000
vt 0.926227 0.875000
vt 0.926227 0.755000
vt 0.870000 0.875000
vt 0.870000 0.755000
vt 0.750000 0.755000
vt 0.965675 0.995000
vt 0.997500 0.995000
vt 0.965675 0.755000
vt 0.926518 0.995000
vt 0.996327 0.625000
vt 0.874304 0.625000
vt 0.874304 0.502977
vt 0.996327 0.747023
vt 0.874304 0.747023
vt 0.871009 0.747023
vt 0.748986 0.747023
vt 0.926539 0.875000
vt 0.755000 0.875000
vt 0.755000 0.755000
vt 0.926539 0.995000
vt 0.755000 0.995000
vt 0.754687 0.995000
vt 0.926227 0.995000
vt 0.870000 0.995000
vt 0.750000 0.875000
vt 0.875000 0.875000
vt 0.875000 0.755000
vt 0.871009 0.502977
vt 0.754687 0.755000
vt 0.996327 0.502977
vt 0.926539 0.755000
vt 0.750000 0.995000
vt 0.875000 0.995000
usemtl None
s off
f 252/251 253/252 249/253
f 253/254 254/255 250/256
f 254/252 255/251 250/253
f 255/255 252/254 248/257
f 255/255 254/255 253/254
f 260/251 261/252 256/258
f 261/254 262/255 258/256
f 262/252 263/251 259/258
f 263/255 260/254 256/257
f 263/255 262/255 261/254
f 268/251 269/252 265/253
f 269/254 270/255 266/256
f 270/252 271/251 266/253
f 271/255 268/254 264/257
f 271/255 270/255 269/254
f 292/259 281/260 273/261
f 293/262 285/263 274/264
f 294/259 288/265 275/266
f 295/267 283/268 272/269
f 296/270 286/271 274/272
f 287/273 278/274 299/274
f 283/265 292/259 282/275
f 276/276 280/273 292/259
f 280/273 277/274 281/260
f 281/277 293/278 286/279
f 277/280 284/281 293/278
f 284/282 278/283 285/263
f 285/260 294/259 289/275
f 278/274 287/273 294/259
f 287/273 279/276 288/265
f 288/284 295/285 291/286
f 279/287 290/288 295/285
f 290/289 276/290 283/268
f 291/291 296/270 289/292
f 272/288 282/285 296/293
f 282/285 273/286 286/294
f 279/276 287/273 303/273
f 280/273 276/276 297/276
f 277/274 280/273 301/273
f 248/258 252/251 249/253
f 249/257 253/254 250/256
f 255/251 251/258 250/253
f 251/256 255/255 248/257
f 252/254 255/255 253/254
f 261/252 257/253 256/258
f 257/257 261/254 258/256
f 258/253 262/252 259/258
f 259/256 263/255 256/257
f 260/254 263/255 261/254
f 264/258 268/251 265/253
f 265/257 269/254 266/256
f 271/251 267/258 266/253
f 267/256 271/255 264/257
f 268/254 271/255 269/254
f 282/275 292/259 273/261
f 286/295 293/262 274/264
f 289/275 294/259 275/266
f 291/296 295/267 272/269
f 289/292 296/270 274/272
f 290/288 279/287 300/287
f 272/266 283/265 282/275
f 283/265 276/276 292/259
f 292/259 280/273 281/260
f 273/297 281/277 286/279
f 281/277 277/280 293/278
f 293/262 284/282 285/263
f 274/261 285/260 289/275
f 285/260 278/274 294/259
f 294/259 287/273 288/265
f 275/298 288/284 291/286
f 288/284 279/287 295/285
f 295/267 290/289 283/268
f 275/299 291/291 289/292
f 291/300 272/288 296/293
f 296/293 282/285 286/294
f 276/290 290/289 297/290
f 284/281 277/280 298/280
f 278/283 284/282 299/283
f 305/293 302/294 298/286
f 304/300 305/293 301/285
f 300/299 303/292 305/270
f 303/292 299/272 302/271
f 301/285 305/293 298/286
f 297/288 304/300 301/285
f 304/291 300/299 305/270
f 305/270 303/292 302/271
f 303/273 287/273 299/274
f 300/276 279/276 303/273
f 301/273 280/273 297/276
f 298/274 277/274 301/273
f 304/288 290/288 300/287
f 290/289 304/289 297/290
f 302/281 284/281 298/280
f 284/282 302/282 299/283
o RightArm
v -0.608447 1.046510 0.633098
v -0.558836 1.033217 0.591994
v -0.548620 1.071342 0.591994
v -0.598231 1.084636 0.633098
v -0.505218 1.018850 0.766636
v -0.455607 1.005557 0.725532
v -0.445392 1.043682 0.725532
v -0.495002 1.056975 0.766636
v -0.577388 1.162422 0.633098
v -0.527778 1.149128 0.591994
v -0.517562 1.187254 0.591994
v -0.567173 1.200547 0.633098
v -0.416204 1.119232 0.846636
v -0.366593 1.105939 0.805532
v -0.356378 1.144064 0.805532
v -0.405988 1.157357 0.846636
v -0.592917 1.104466 0.633098
v -0.543307 1.091173 0.591994
v -0.533091 1.129298 0.591994
v -0.582702 1.142591 0.633098
v -0.460711 1.069041 0.806636
v -0.411100 1.055748 0.765532
v -0.400885 1.093873 0.765532
v -0.450495 1.107167 0.806636
v -0.570711 1.222475 0.640000
v -0.407526 1.180711 0.640000
v -0.459289 0.987526 0.640000
v -0.622474 1.029289 0.640000
v -0.570711 1.222475 0.040000
v -0.377526 1.170711 0.040000
v -0.429289 0.977526 0.040000
v -0.622474 1.029289 0.040000
v -0.412049 1.030024 0.226002
v -0.425447 0.980024 0.032817
v -0.637951 1.036964 0.032817
v -0.624553 1.086964 0.226002
v -0.262049 1.589831 0.070711
v -0.275447 1.539831 -0.122474
v -0.487951 1.596771 -0.122474
v -0.474553 1.646771 0.070711
v -0.412049 1.030024 0.226002
v -0.425447 0.980024 0.032817
v -0.637951 1.036964 0.032817
v -0.624553 1.086964 0.226002
v -0.693486 0.513455 0.694735
v -0.602983 1.062642 0.361349
v -0.461789 1.730295 -0.672876
v -0.531264 1.395525 -0.037639
v -0.652368 0.578024 -0.335121
v -0.469656 1.671167 -0.341837
v -0.624717 1.063107 0.050054
v -0.656377 0.819798 0.643608
v -0.657270 0.852558 -0.086289
vt 0.253579 0.873279
vt 0.340979 0.873279
vt 0.253579 0.816248
vt 0.253146 0.874685
vt 0.341523 0.874685
vt 0.341523 0.814914
vt 0.253146 0.814914
vt 0.626250 0.748395
vt 0.498750 0.748395
vt 0.498750 0.253254
vt 0.747500 0.750000
vt 0.627500 0.750000
vt 0.747500 0.250000
vt 0.626250 0.253254
vt 0.505402 0.355710
vt 0.505402 0.254598
vt 0.744598 0.254598
vt 0.744598 0.746975
vt 0.744598 0.676198
vt 0.505402 0.676198
vt 0.627500 0.250000
vt 0.500000 1.000000
vt 0.625000 1.000000
vt 0.625000 0.750000
vt 0.750000 1.000000
vt 0.750000 0.750000
vt 0.637500 0.806250
vt 0.637500 0.756250
vt 0.737500 0.756250
vt 0.622500 0.938750
vt 0.622500 0.998750
vt 0.502500 0.998750
vt 0.867657 0.077060
vt 0.937039 0.040117
vt 0.994484 0.190978
vt 0.763126 0.230587
vt 0.818273 0.387902
vt 0.551102 0.133935
vt 0.557469 0.001489
vt 0.891942 0.001463
vt 0.340979 0.816248
vt 0.744598 0.355710
vt 0.505402 0.746975
vt 0.500000 0.750000
vt 0.737500 0.806250
vt 0.502500 0.938750
vt 0.999397 0.420077
usemtl None
s off
f 310/301 311/302 306/303
f 311/304 312/305 308/306
f 312/302 313/301 309/303
f 313/305 310/304 309/306
f 313/305 312/305 311/304
f 318/301 319/302 314/303
f 319/304 320/305 316/306
f 320/302 321/301 317/303
f 321/305 318/304 314/307
f 321/305 320/305 319/304
f 326/301 327/302 322/303
f 327/304 328/305 324/306
f 328/302 329/301 325/303
f 329/305 326/304 325/306
f 329/305 328/305 326/304
f 335/308 336/309 332/310
f 336/311 337/312 332/313
f 337/308 334/309 333/314
f 330/315 331/316 332/317
f 337/318 336/319 335/320
f 330/321 334/312 331/313
f 343/322 344/323 340/324
f 344/323 345/325 341/326
f 345/322 342/323 338/324
f 346/327 347/328 348/329
f 345/330 344/331 343/332
f 338/326 342/325 343/323
f 358/333 356/334 351/335
f 354/336 358/333 350/337
f 352/338 355/339 358/333
f 355/339 353/340 358/333
f 311/302 307/341 306/303
f 307/307 311/304 308/306
f 308/341 312/302 309/303
f 310/304 313/305 311/304
f 319/302 315/341 314/303
f 315/307 319/304 316/306
f 316/341 320/302 317/303
f 317/306 321/305 314/307
f 318/304 321/305 319/304
f 327/302 323/341 322/303
f 323/307 327/304 324/306
f 324/341 328/302 325/303
f 310/304 306/307 309/306
f 328/305 327/304 326/304
f 331/314 335/308 332/310
f 337/312 333/321 332/313
f 326/304 322/307 325/306
f 333/342 330/315 332/317
f 334/343 337/318 335/320
f 334/312 335/311 331/313
f 339/344 343/322 340/324
f 340/324 344/323 341/326
f 341/344 345/322 338/324
f 349/345 346/327 348/329
f 342/346 345/330 343/332
f 339/324 338/326 343/323
f 357/347 358/333 351/335
f 358/333 357/347 350/337
f 354/336 352/338 358/333
f 353/340 356/334 358/333
f 334/309 330/310 333/314
o LeftArm
v 0.608447 1.046510 0.633098
v 0.558836 1.033217 0.591994
v 0.548620 1.071342 0.591994
v 0.598231 1.084636 0.633098
v 0.505218 1.018850 0.766636
v 0.455607 1.005557 0.725532
v 0.445392 1.043682 0.725532
v 0.495002 1.056975 0.766636
v 0.577388 1.162421 0.633098
v 0.527778 1.149128 0.591994
v 0.517562 1.187253 0.591994
v 0.567173 1.200547 0.633098
v 0.416204 1.119232 0.846636
v 0.366593 1.105939 0.805532
v 0.356378 1.144064 0.805532
v 0.405988 1.157357 0.846636
v 0.592918 1.104466 0.633098
v 0.543307 1.091173 0.591994
v 0.533091 1.129298 0.591994
v 0.582702 1.142591 0.633098
v 0.460711 1.069041 0.806636
v 0.411100 1.055748 0.765532
v 0.400885 1.093873 0.765532
v 0.450495 1.107166 0.806636
v 0.570711 1.222474 0.640000
v 0.407526 1.180711 0.640000
v 0.459289 0.987526 0.640000
v 0.622475 1.029289 0.640000
v 0.570711 1.222475 0.040000
v 0.377526 1.170711 0.040000
v 0.429289 0.977526 0.040000
v 0.622474 1.029289 0.040000
v 0.412049 1.030024 0.226002
v 0.425447 0.980024 0.032817
v 0.637951 1.036964 0.032817
v 0.624553 1.086964 0.226002
v 0.262049 1.589831 0.070711
v 0.275447 1.539831 -0.122474
v 0.487951 1.596771 -0.122474
v 0.474553 1.646771 0.070711
v 0.412049 1.030024 0.226002
v 0.425447 0.980024 0.032817
v 0.637951 1.036964 0.032817
v 0.624553 1.086964 0.226002
v 0.693486 0.513454 0.694735
v 0.602983 1.062642 0.361349
v 0.461789 1.730295 -0.672876
v 0.531264 1.395525 -0.037639
v 0.652368 0.578024 -0.335121
v 0.469656 1.671167 -0.341837
v 0.624717 1.063107 0.050054
v 0.656377 0.819798 0.643608
v 0.657270 0.852558 -0.086289
vt 0.253579 0.873279
vt 0.340979 0.873279
vt 0.253579 0.816248
vt 0.253146 0.874685
vt 0.341523 0.874685
vt 0.341523 0.814914
vt 0.253146 0.814914
vt 0.626250 0.748395
vt 0.498750 0.748395
vt 0.498750 0.253254
vt 0.747500 0.750000
vt 0.627500 0.750000
vt 0.747500 0.250000
vt 0.626250 0.253254
vt 0.505402 0.355710
vt 0.505402 0.254598
vt 0.744598 0.254598
vt 0.744598 0.746975
vt 0.744598 0.676198
vt 0.505402 0.676198
vt 0.627500 0.250000
vt 0.500000 1.000000
vt 0.625000 1.000000
vt 0.625000 0.750000
vt 0.750000 1.000000
vt 0.750000 0.750000
vt 0.637500 0.806250
vt 0.637500 0.756250
vt 0.737500 0.756250
vt 0.622500 0.938750
vt 0.622500 0.998750
vt 0.502500 0.998750
vt 0.867657 0.077060
vt 0.937039 0.040117
vt 0.994484 0.190978
vt 0.763126 0.230587
vt 0.818273 0.387902
vt 0.551102 0.133935
vt 0.557469 0.001489
vt 0.891942 0.001463
vt 0.340979 0.816248
vt 0.744598 0.355710
vt 0.505402 0.746975
vt 0.500000 0.750000
vt 0.737500 0.806250
vt 0.502500 0.938750
vt 0.999397 0.420077
usemtl None
s off
f 363/348 364/349 359/350
f 364/351 365/352 361/353
f 365/349 366/348 362/350
f 366/352 363/351 362/353
f 366/352 365/352 364/351
f 371/348 372/349 367/350
f 372/351 373/352 369/353
f 373/349 374/348 370/350
f 374/352 371/351 367/354
f 374/352 373/352 372/351
f 379/348 380/349 375/350
f 380/351 381/352 377/353
f 381/349 382/348 378/350
f 382/352 379/351 378/353
f 382/352 381/352 379/351
f 388/355 389/356 385/357
f 389/358 390/359 385/360
f 390/355 387/356 386/361
f 383/362 384/363 385/364
f 390/365 389/366 388/367
f 383/368 387/359 384/360
f 396/369 397/370 393/371
f 397/370 398/372 394/373
f 398/369 395/370 391/371
f 399/374 400/375 401/376
f 398/377 397/378 396/379
f 391/373 395/372 396/370
f 411/380 409/381 404/382
f 407/383 411/380 403/384
f 405/385 408/386 411/380
f 408/386 406/387 411/380
f 364/349 360/388 359/350
f 360/354 364/351 361/353
f 361/388 365/349 362/350
f 363/351 366/352 364/351
f 372/349 368/388 367/350
f 368/354 372/351 369/353
f 369/388 373/349 370/350
f 370/353 374/352 367/354
f 371/351 374/352 372/351
f 380/349 376/388 375/350
f 376/354 380/351 377/353
f 377/388 381/349 378/350
f 363/351 359/354 362/353
f 381/352 380/351 379/351
f 384/361 388/355 385/357
f 390/359 386/368 385/360
f 379/351 375/354 378/353
f 386/389 383/362 385/364
f 387/390 390/365 388/367
f 387/359 388/358 384/360
f 392/391 396/369 393/371
f 393/371 397/370 394/373
f 394/391 398/369 391/371
f 402/392 399/374 401/376
f 395/393 398/377 396/379
f 392/371 391/373 396/370
f 410/394 411/380 404/382
f 411/380 410/394 403/384
f 407/383 405/385 411/380
f 406/387 409/381 411/380
f 387/356 383/357 386/361
o Body
v -0.047295 1.206921 -0.242874
v -0.047295 1.112355 -0.245514
v 0.047295 1.112355 -0.245514
v 0.047295 1.206921 -0.242874
v -0.047295 1.214837 -0.526397
v -0.047295 1.120271 -0.529037
v 0.047295 1.120271 -0.529037
v 0.047295 1.214837 -0.526397
v -0.047295 1.407232 -0.235246
v -0.047295 1.313646 -0.254150
v 0.047295 1.313646 -0.254150
v 0.047295 1.407232 -0.235246
v -0.047295 1.466082 -0.526579
v -0.047295 1.372497 -0.545483
v 0.047295 1.372497 -0.545483
v 0.047295 1.466082 -0.526579
v -0.047295 1.562245 -0.196088
v -0.047295 1.503489 -0.270217
v 0.047295 1.503489 -0.270217
v 0.047295 1.562245 -0.196088
v -0.047295 1.754982 -0.348853
v -0.047295 1.696226 -0.422983
v 0.047295 1.696226 -0.422983
v 0.047295 1.754982 -0.348853
v -0.046096 1.604129 -0.025575
v -0.046096 1.572246 -0.113079
v 0.046096 1.572246 -0.113079
v 0.046096 1.604129 -0.025575
v -0.046096 1.913064 -0.138141
v -0.046096 1.881180 -0.225645
v 0.046096 1.881180 -0.225645
v 0.046096 1.913064 -0.138141
v -0.042886 1.626483 0.135769
v -0.042886 1.613304 0.049345
v 0.042886 1.613304 0.049345
v 0.042886 1.626483 0.135769
v -0.042886 1.986885 0.080811
v -0.042886 1.973706 -0.005613
v 0.042886 1.973706 -0.005613
v 0.042886 1.986885 0.080811
v -0.300000 1.000000 0.200000
v -0.300000 1.000000 -0.300000
v 0.300000 1.000000 -0.300000
v 0.300000 1.000000 0.200000
v -0.500000 1.750000 0.200000
v -0.500000 1.600000 -0.300000
v 0.500000 1.600000 -0.300000
v 0.500000 1.750000 0.200000
v -0.500000 1.675000 -0.050000
v -0.400000 1.300000 -0.300000
v -0.300000 1.000000 -0.050000
v -0.400000 1.375000 0.200000
v 0.000000 1.600000 -0.300000
v 0.400000 1.300000 -0.300000
v 0.000000 1.000000 -0.300000
v 0.500000 1.675000 -0.050000
v 0.400000 1.375000 0.200000
v 0.300000 1.000000 -0.050000
v 0.000000 1.750000 0.200000
v 0.000000 1.000000 0.200000
v -0.400000 1.337500 -0.050000
v 0.000000 1.300000 -0.300000
v 0.400000 1.337500 -0.050000
v 0.000000 1.375000 0.200000
v 0.000000 1.000000 -0.050000
v 0.000000 1.675000 -0.050000
vt 0.253579 0.998279
vt 0.340979 0.998279
vt 0.340979 0.941248
vt 0.253146 0.999685
vt 0.341523 0.999685
vt 0.341523 0.939914
vt 0.253146 0.939914
vt 0.437007 0.202377
vt 0.499507 0.202715
vt 0.437007 0.003282
vt 0.875000 0.625000
vt 0.751280 0.625000
vt 0.751624 0.500000
vt 0.374507 0.203282
vt 0.374507 0.003282
vt 0.251661 0.202755
vt 0.374084 0.202755
vt 0.373473 0.002755
vt 0.000000 0.000000
vt 0.875000 0.747893
vt 0.752107 0.747893
vt 0.374507 0.403282
vt 0.437007 0.401469
vt 0.499507 0.402140
vt 0.998720 0.625000
vt 0.998376 0.500000
vt 1.000000 0.750000
vt 0.875000 0.750000
vt 0.750000 0.750000
vt 0.372117 0.202755
vt 0.249695 0.202755
vt 0.371506 0.002755
vt 0.372728 0.402755
vt 0.249695 0.402755
vt 0.251661 0.402755
vt 0.374695 0.402755
vt 0.875000 0.502108
vt 0.752107 0.625000
vt 0.997892 0.502108
vt 0.997892 0.625000
vt 0.997892 0.747893
vt 0.253579 0.941248
vt 0.499507 0.003291
vt 0.875000 0.500000
vt 0.251661 0.002755
vt 0.249695 0.002755
vt 0.752107 0.502108
usemtl None
s off
f 416/395 417/396 413/397
f 417/398 418/399 414/400
f 418/396 419/395 414/397
f 419/399 416/398 412/401
f 419/399 418/399 417/398
f 424/395 425/396 421/397
f 425/398 426/399 422/400
f 426/396 427/395 422/397
f 427/399 424/398 420/401
f 427/399 426/399 425/398
f 432/395 433/396 429/397
f 433/398 434/399 430/400
f 434/396 435/395 430/397
f 435/399 432/398 428/401
f 435/399 434/399 433/398
f 440/395 441/396 437/397
f 441/398 442/399 438/400
f 442/396 443/395 438/397
f 443/399 440/398 436/401
f 443/399 442/399 441/398
f 448/395 449/396 445/397
f 449/398 450/399 446/400
f 450/396 451/395 446/397
f 451/399 448/398 444/401
f 451/399 450/399 449/398
f 472/402 461/403 462/404
f 473/405 465/406 454/407
f 474/402 468/408 455/409
f 475/410 463/411 452/412
f 476/413 466/413 454/413
f 477/405 464/414 457/415
f 463/408 472/402 452/409
f 456/416 460/417 463/408
f 460/417 457/418 472/402
f 461/419 473/405 453/420
f 457/421 464/422 461/419
f 464/422 458/423 465/406
f 465/403 474/402 469/404
f 458/418 467/417 474/402
f 467/417 459/416 468/408
f 468/424 475/425 455/426
f 459/427 470/428 468/424
f 470/429 456/430 463/411
f 471/413 476/413 469/413
f 452/413 462/413 476/413
f 462/413 453/413 466/413
f 470/431 477/405 460/432
f 459/433 467/434 477/405
f 467/434 458/435 464/414
f 412/436 416/395 413/397
f 413/401 417/398 414/400
f 419/395 415/436 414/397
f 415/400 419/399 412/401
f 416/398 419/399 417/398
f 420/436 424/395 421/397
f 421/401 425/398 422/400
f 427/395 423/436 422/397
f 423/400 427/399 420/401
f 424/398 427/399 425/398
f 428/436 432/395 429/397
f 429/401 433/398 430/400
f 435/395 431/436 430/397
f 431/400 435/399 428/401
f 432/398 435/399 433/398
f 436/436 440/395 437/397
f 437/401 441/398 438/400
f 443/395 439/436 438/397
f 439/400 443/399 436/401
f 440/398 443/399 441/398
f 444/436 448/395 445/397
f 445/401 449/398 446/400
f 451/395 447/436 446/397
f 447/400 451/399 444/401
f 448/398 451/399 449/398
f 461/403 453/437 462/404
f 466/438 473/405 454/407
f 469/404 474/402 455/409
f 471/439 475/410 452/412
f 469/413 476/413 454/413
f 460/432 477/405 457/415
f 472/402 462/404 452/409
f 460/417 472/402 463/408
f 457/418 461/403 472/402
f 473/405 466/438 453/420
f 464/422 473/405 461/419
f 473/405 464/422 465/406
f 454/437 465/403 469/404
f 465/403 458/418 474/402
f 474/402 467/417 468/408
f 475/425 471/440 455/426
f 470/428 475/425 468/424
f 475/410 470/429 463/411
f 455/413 471/413 469/413
f 471/413 452/413 476/413
f 476/413 462/413 466/413
f 456/441 470/431 460/432
f 470/431 459/433 477/405
f 477/405 467/434 464/414
o Mouth
v -0.187200 1.200000 0.530000
v -0.187200 1.200000 0.200000
v 0.187200 1.200000 0.200000
v 0.187200 1.200000 0.530000
v -0.187200 1.320000 0.570000
v -0.187200 1.320000 0.200000
v 0.187200 1.320000 0.200000
v 0.187200 1.320000 0.590000
vt 0.252622 0.525948
vt 0.496295 0.525948
vt 0.252539 0.425948
vt 0.242973 0.078066
vt 0.005408 0.078066
vt 0.005408 0.005899
vt 0.252695 0.425948
vt 0.244850 0.247547
vt 0.005150 0.247547
vt 0.244850 0.171160
vt 0.005739 0.180497
vt 0.005739 0.004219
vt 0.244261 0.004219
vt 0.245237 0.254665
vt 0.245237 0.495139
vt 0.004763 0.254604
vt 0.496295 0.425948
vt 0.242973 0.005899
vt 0.005150 0.171160
vt 0.244261 0.180497
vt 0.004763 0.495139
usemtl None
s off
f 482/442 483/443 478/444
f 483/445 484/446 480/447
f 484/443 485/442 481/448
f 485/449 482/450 481/451
f 478/452 479/453 480/454
f 485/455 484/456 482/457
f 483/443 479/458 478/444
f 479/459 483/445 480/447
f 480/458 484/443 481/448
f 482/450 478/460 481/451
f 481/461 478/452 480/454
f 484/456 483/462 482/457
o Head
v 0.046070 1.342075 0.564892
v 0.046070 1.343494 0.592856
v 0.073930 1.343494 0.592856
v 0.073930 1.342075 0.564892
v 0.046070 1.239460 0.570099
v 0.046070 1.240879 0.598063
v 0.073930 1.240879 0.598063
v 0.073930 1.239460 0.570099
v -0.093930 1.342075 0.564892
v -0.093930 1.343494 0.592856
v -0.066070 1.343494 0.592856
v -0.066070 1.342075 0.564892
v -0.093930 1.239460 0.570099
v -0.093930 1.240879 0.598063
v -0.066070 1.240879 0.598063
v -0.066070 1.239460 0.570099
v -0.032892 1.680417 0.445408
v -0.032892 1.670501 0.380376
v 0.032892 1.670501 0.380376
v 0.032892 1.680417 0.445408
v -0.032892 1.849500 0.419624
v -0.032892 1.839583 0.354592
v 0.032892 1.839583 0.354592
v 0.032892 1.849500 0.419624
v -0.204000 1.315000 0.600000
v -0.204000 1.315000 0.200000
v 0.204000 1.315000 0.200000
v 0.204000 1.315000 0.600000
v -0.204000 1.635000 0.600000
v -0.204000 1.795000 0.200000
v 0.204000 1.795000 0.200000
v 0.204000 1.635000 0.600000
vt 0.253579 0.935607
vt 0.340979 0.935607
vt 0.253579 0.878576
vt 0.253146 0.937013
vt 0.341523 0.937013
vt 0.341523 0.877242
vt 0.253146 0.877242
vt 0.253579 0.998279
vt 0.340979 0.998279
vt 0.253579 0.941248
vt 0.253146 0.999685
vt 0.341523 0.999685
vt 0.341523 0.939914
vt 0.253146 0.939914
vt 0.255542 0.747973
vt 0.495833 0.747698
vt 0.495833 0.521543
vt 0.245166 0.995166
vt 0.004834 0.995166
vt 0.004834 0.754834
vt 0.248129 0.748129
vt 0.001871 0.748129
vt 0.001871 0.501871
vt 0.003004 0.496996
vt 0.003004 0.253004
vt 0.246996 0.253004
vt 0.247106 0.752894
vt 0.247106 0.997106
vt 0.002894 0.997106
vt 0.340979 0.878576
vt 0.340979 0.941248
vt 0.255542 0.521543
vt 0.245166 0.754834
vt 0.248129 0.501871
vt 0.246996 0.496996
vt 0.002894 0.752894
usemtl None
s off
f 490/463 491/464 486/465
f 491/466 492/467 488/468
f 492/464 493/463 489/465
f 493/467 490/466 486/469
f 493/467 492/467 491/466
f 498/463 499/464 494/465
f 499/466 500/467 496/468
f 500/464 501/463 497/465
f 501/467 498/466 494/469
f 501/467 500/467 499/466
f 506/470 507/471 502/472
f 507/473 508/474 504/475
f 508/471 509/470 505/472
f 509/474 506/473 502/476
f 509/474 508/474 507/473
f 514/477 515/478 511/479
f 515/480 516/481 512/482
f 516/478 517/477 512/479
f 517/483 514/484 510/485
f 510/486 511/487 512/488
f 517/489 516/490 515/491
f 491/464 487/492 486/465
f 487/469 491/466 488/468
f 488/492 492/464 489/465
f 489/468 493/467 486/469
f 490/466 493/467 491/466
f 499/464 495/492 494/465
f 495/469 499/466 496/468
f 496/492 500/464 497/465
f 497/468 501/467 494/469
f 498/466 501/467 499/466
f 507/471 503/493 502/472
f 503/476 507/473 504/475
f 504/493 508/471 505/472
f 505/475 509/474 502/476
f 506/473 509/474 507/473
f 510/494 514/477 511/479
f 511/495 515/480 512/482
f 517/477 513/494 512/479
f 513/496 517/483 510/485
f 513/497 510/486 512/488
f 514/498 517/489 515/491
