{
	"itemName": "eechetikarm",
	"loadDefault": true,
	"slotType": "base",
	"dropMobId": "lycanitesmobs:eechetik",
	"dropChance": 0.1,
	"levelMin": 1,
	"levelMax": 3,
	"elements": [
		"poison"
	],
	"features": [
		{
			"featureType": "slot",
			"slotType": "head"
		},
		{
			"featureType": "effect",
			"levelMax": 1,
			"effectType": "lycanitesmobs:plague",
			"effectTarget": "target",
			"effectDuration": 60,
			"effectStrength": 1
		},
		{
			"featureType": "effect",
			"levelMin": 2,
			"levelMax": 2,
			"effectType": "lycanitesmobs:plague",
			"effectTarget": "target",
			"effectDuration": 80,
			"effectStrength": 2
		},
		{
			"featureType": "effect",
			"levelMin": 3,
			"effectType": "lycanitesmobs:plague",
			"effectTarget": "target",
			"effectDuration": 100,
			"effectStrength": 3
		}
	]
}