{
	"name": "whirlwind",
	"loadDefault": true,
	"width": 1.0,
	"height": 1.0,
	"scale": 1.5,
	"damage": 3,
	"pierce": 1,
	"knockbackChance": 0.5,
	"effectDuration": 5,
	"effectAmplifier": 1,
	"velocity": 0.8,
	"weight": 1,
	"lifetime": 200,
	"elements": [
		"air"
	],
	"behaviours": [],
	"waterproof": false,
	"lavaproof": false,
	"cutGrass": false,
	"impactSound": false,
	"ripper": false,
	"pierceBlocks": false,
	"glow": false,
	"rollSpeed": 0
}