{
  "result": {
    "item": "minecraft:iron_ore",
    "count": 1
  },
  "ingredients": [
	{
      "item": "lycanitesmobs:equipmentpart_geonachfist"
    }
  ],
  "type": "minecraft:crafting_shapeless"
}