{
  "result": {
    "item": "lycanitesmobs:lushcrystal"
  },
  "ingredients": [
    {
      "item": "minecraft:grass"
    },
    {
      "item": "minecraft:glowstone"
    }
  ],
  "type": "minecraft:crafting_shapeless"
}