{
  "result": {
    "item": "minecraft:glowstone_dust",
    "count": 8
  },
  "ingredients": [
	{
      "item": "lycanitesmobs:equipmentpart_zephyrblade"
    }
  ],
  "type": "minecraft:crafting_shapeless"
}