{
	"name": "cooked_yale_meat",
	"loadDefault": true,
	"group": "items",
	"maxStackSize": 64,
	"food": {
		"hunger": 7,
		"saturation": 0.7,
		"alwaysEdible": true,
		"fast": false,
		"meat": true,
		"effects": [
			{
				"effectId": "minecraft:haste",
				"duration": 10,
				"amplifier": 2,
				"chance": 1.0
			}
		]
	}
}